{
  "packageDirectories": [
    {
      "path": "force-app",
      "package": "orglimitpkg",
      "versionName": "ver 0.1",
      "versionNumber": "0.1.0.NEXT",
      "default": true
    }
  ],
  "namespace": "",
  "sfdcLoginUrl": "https://login.salesforce.com",
  "sourceApiVersion": "51.0",
  "packageAliases": {
    "orglimitpkg": "0Ho5g000000CaYJCA0",
    "orglimitpkg@0.1.0-1": "04t5g000000cNwkAAE",
    "orglimitpkg@0.1.0-2": "04t5g000000cNwpAAE"
  }
}
